…
}

# use map to iterate over each variable of the dataframe iris_with_missing with filling function that I just wrote above and return a dataframe called iris_filled
iris_filled = map_df(iris_with_missing, filling)

iris_filled
```

    ## # A tibble: 150 x 5
    ##    Sepal.Length Sepal.Width Petal.Length Petal.Width Species  
    ##           <dbl>       <dbl>        <dbl>       <dbl> <chr>    
    ##  1         5.1          3.5          1.4         0.2 virginica
    ##  2         4.9          3            1.4         0.2 setosa   
    ##  3         4.7          3.2          1.3         0.2 setosa   
    ##  4         4.6          3.1          1.5         0.2 setosa   
    ##  5         5            3.6          1.4         0.2 setosa   
    ##  6         5.4          3.9          1.7         0.4 setosa   
    ##  7         5.84         3.4          1.4         0.3 setosa   
    ##  8         5            3.4          1.5         0.2 setosa   
    ##  9         4.4          2.9          1.4         0.2 setosa   
    ## 10         4.9          3.1          1.5         0.1 setosa   
    ## # ... with 140 more rows
…
arm_study
```

    ## # A tibble: 160 x 4
    ##    subject_id arm   week  weekly_observation
    ##    <fct>      <fct> <chr>              <dbl>
    ##  1 01         con   1                   0.2 
    ##  2 01         con   2                  -1.31
    ##  3 01         con   3                   0.66
    ##  4 01         con   4                   1.96
    ##  5 01         con   5                   0.23
    ##  6 01         con   6                   1.09
    ##  7 01         con   7                   0.05
    ##  8 01         con   8                   1.94
    ##  9 02         con   1                   1.13
    ## 10 02         con   2                  -0.88
    ## # ... with 150 more rows
…
